%YAML 1.1
%TAG !u! tag:unity3d.com,2011:
--- !u!1045 &1
EditorBuildSettings:
  m_ObjectHideFlags: 0
  serializedVersion: 2
  m_Scenes:
  - enabled: 0
    path: 
    guid: 00000000000000000000000000000000
  - enabled: 1
    path: Assets/Intro.unity
    guid: aa9cf02719edf044bbaf1961464b6a77
  - enabled: 1
    path: Assets/MainMenu.unity
    guid: 5a7629f9d73b274439c8723efa603b9f
  - enabled: 1
    path: Assets/LevelSelector.unity
    guid: 0af463e3ef6a5dd4ab3310f057e77b1b
  - enabled: 1
    path: Assets/Level1.unity
    guid: 26ee42c27c11898419a8ac9335d357db
  - enabled: 1
    path: Assets/Level2.unity
    guid: 2f19f1f43978bd24fbe3d35308ed0614
  - enabled: 1
    path: Assets/Level3.unity
    guid: 6db7d8b115c3d044189a76e499112f4b
  - enabled: 1
    path: Assets/Level4.unity
    guid: 681de77e496a2b248b90bd1362b408fc
  - enabled: 1
    path: Assets/Level5.unity
    guid: ffd2b13aaf758ef4193db72dd2cd593a
  - enabled: 1
    path: Assets/Level6.unity
    guid: 6b301d6579609c14bb8df761d1a2dd51
  - enabled: 1
    path: Assets/Level7.unity
    guid: cb6f44b9c87eba0498b36a5a9f852ff3
  - enabled: 1
    path: Assets/Level8.unity
    guid: fe7cf78747b2cb541b1ee6631653b318
  - enabled: 1
    path: Assets/Level9.unity
    guid: 68f0dafc35cda5a49bc6a609be0e3c4f
