%YAML 1.1
%TAG !u! tag:unity3d.com,2011:
--- !u!114 &11400000
MonoBehaviour:
  m_ObjectHideFlags: 0
  m_PrefabParentObject: {fileID: 0}
  m_PrefabInternal: {fileID: 0}
  m_GameObject: {fileID: 0}
  m_Enabled: 1
  m_EditorHideFlags: 0
  m_Script: {fileID: 11500000, guid: d1f2e8d70ff7100408b934cc9b51aa7c, type: 3}
  m_Name: Chase Chaser
  m_EditorClassIdentifier: 
  transitions:
  - decision: {fileID: 11400000, guid: b4548e185b16b7241ba03dd300046fa6, type: 2}
    trueState: {fileID: 11400000, guid: 50d211259c5811048bd2e6b7716cadf0, type: 2}
    falseState: {fileID: 11400000, guid: 37eca809696cf334da60d22b301a65d0, type: 2}
  actions:
  - {fileID: 11400000, guid: 892af0080053d504094871825d47420c, type: 2}
  - {fileID: 11400000, guid: bcacb6be6ff146041946fa510baeaa9f, type: 2}
  sceneGizmoColor: {r: 0.36332184, g: 0.32352942, b: 1, a: 1}
